 * Serving Flask app "flaskAPI" (lazy loading)
 * Environment: production
   WARNING: Do not use the development server in a production environment.
   Use a production WSGI server instead.
 * Debug mode: on
 * Running on http://127.0.0.1:5000/ (Press CTRL+C to quit)
 * Restarting with stat
 * Debugger is active!
 * Debugger PIN: 216-019-491
 * Detected change in '/opt/brand_recog/BBL/ReceiptDetectYolov3/darknet/flaskWeb/flaskAPI.py', reloading
 * Restarting with stat
 * Debugger is active!
 * Debugger PIN: 216-019-491
 * Serving Flask app "flaskAPI.py"
 * Environment: production
   WARNING: Do not use the development server in a production environment.
   Use a production WSGI server instead.
 * Debug mode: off
 * Running on http://127.0.0.1:3001/ (Press CTRL+C to quit)
